0,217.0702
0.01656534,231.5429
0.03390319,245.9006
0.0496993,135.2247
0.06649069,237.8561
0.08283244,150.2806
0.09941624,221.2929
0.116037,221.2929
0.1326191,180.1685
0.1490995,136.4355
0.1657076,204.2569
0.1822323,154.2531
0.1988202,154.2531
0.2153667,307.5842
0.2319496,137.4168
0.2586381,267.4686
0.2752157,146.3174
0.2917819,244.0701
0.3086188,142.3897
0.3249196,139.109
0.3414828,161.2082
0.3580613,161.2082
0.3748465,288.978
0.3914447,139.3284
0.4077635,138.8861
0.4244187,164.7297
0.44153,150.1847
0.4575715,150.1847
0.4741955,277.4166
0.490664,139.6592
0.507277,249.2691
0.5237217,147.6541
0.5407982,230.6296
0.5568585,230.6296
0.5738796,184.8608
0.5899887,245.6473
0.6065496,137.6295
0.6231309,138.4926
0.6397049,187.2289
0.6563338,187.2289
0.6729217,204.2608
0.6894665,225.2734
0.706036,136.0464
0.7225463,220.0716
0.7390965,146.8647
0.7561209,146.8647
0.7722378,299.3216
0.788802,141.6599
0.8053685,269.1693
0.8219355,142.3895
0.8384967,142.3895
0.8550646,174.7806
0.8716159,201.2589
0.8884775,143.1728
0.9047663,198.1044
0.9215729,146.1416
0.9379019,146.1416
0.9544623,300.308
0.9716956,139.3723
0.9875787,262.5413
1.004164,146.6056
1.020831,238.6613
1.037412,238.6613
1.053923,244.6605
1.071065,137.9147
1.087084,239.0571
1.103582,149.6102
1.120183,225.5341
1.136709,225.5341
1.153287,236.866
1.169837,251.4219
1.186415,135.5185
1.202962,137.3841
1.220366,187.3028
1.236094,187.3028
1.25267,149.4358
1.269272,215.7517
1.286591,150.3026
1.30237,223.9553
1.31893,223.9553
1.335729,236.1788
1.352073,250.7268
1.368631,135.7187
1.385206,137.6377
1.401904,187.6118
1.418432,187.6118
1.434885,149.4216
1.451499,215.9929
1.46804,150.0671
1.484618,223.8508
1.501716,150.0453
1.517774,150.0453
1.534274,315.6075
1.550858,140.0151
1.567463,270.7458
