0,194.0005
0.01700057,136.5885
0.03391787,213.0526
0.05015454,152.6704
0.06670219,202.545
0.08328144,202.545
0.09984386,170.9111
0.1166081,228.3066
0.1329785,141.4572
0.150213,222.5456
0.1667811,149.3787
0.1826806,149.3787
0.1993821,313.5157
0.2158083,140.2195
0.2323707,142.6385
0.2489454,192.7027
0.2658771,151.371
0.2821527,151.371
0.2986507,294.9431
0.3152066,140.8191
0.3317805,266.5526
0.3483449,142.4314
0.3651235,242.1006
0.38148,242.1006
0.3980494,181.7311
0.4146073,136.0978
0.431278,206.7065
0.447845,150.5049
0.4643799,150.5049
0.4809189,303.2237
0.4974518,140.6721
0.5140122,272.6244
0.5305705,141.7147
0.5471366,245.4405
0.563706,245.4405
0.5802692,183.7193
0.5968382,136.3838
0.6134059,207.9404
0.6299704,150.3016
0.6465345,218.523
0.6631043,218.523
0.6799707,170.7837
0.696237,236.3922
0.7130193,151.8847
